2018-05-29 16:40:38: -- Analysis Started by On File Change, After Delay
2018-05-29 16:40:38: 变更：1， 冲突：， 复制时间：， 复制状态：/， 错误： , All: 288
2018-05-29 16:40:38: Left to Right: Copy File: 1 
2018-05-29 16:40:38: == Sync Started by On File Change, After Delay
2018-05-29 16:40:38: 覆盖复制 'C:/Users/hyzsf/Sites/Tiddlywiki/public/index.html' -> 'C:/Users/hyzsf/Documents/工作/wiki/public/index.html'
2018-05-29 16:40:38: ===== ：同步完毕。时间：00:00:00，速度： 0 字节/s =====, 项目同步未必： 1，错误： 
2018-05-29 16:40:38: 
