2018-05-30 16:10:16: -- Analysis Started by On File Change, After Delay
2018-05-30 16:10:16: 变更：1， 冲突：， 复制时间：， 复制状态：/， 错误： , All: 288
2018-05-30 16:10:16: Left to Right: Copy File: 1 
2018-05-30 16:10:16: == Sync Started by On File Change, After Delay
2018-05-30 16:10:17: 覆盖复制 'C:/Users/hyzsf/Sites/Tiddlywiki/public/index.html' -> 'C:/Users/hyzsf/Documents/工作/wiki/public/index.html'
2018-05-30 16:10:17: ===== ：同步完毕。时间：00:00:01，速度： 3.46 MB/s =====, 项目同步未必： 1，错误： 
2018-05-30 16:10:17: 
